module gitlab.com/GZGavinZhao/cf-tool

go 1.17

require (
	github.com/PuerkitoBio/goquery v1.5.0
	github.com/docopt/docopt-go v0.0.0-20180111231733-ee0de3bc6815
	github.com/fatih/color v1.7.0
	github.com/k0kubun/go-ansi v0.0.0-20180517002512-3bf9e2903213
	github.com/mitchellh/go-homedir v1.1.0
	github.com/olekukonko/tablewriter v0.0.1
	github.com/sergi/go-diff v1.0.0
	github.com/shirou/gopsutil v3.21.11+incompatible
	github.com/skratchdot/open-golang v0.0.0-20190402232053-79abb63cd66e
	golang.org/x/crypto v0.0.0-20190404164418-38d8ce5564a5
)

require (
	github.com/andybalholm/cascadia v1.0.0 // indirect
	github.com/go-ole/go-ole v1.2.6 // indirect
	github.com/mattn/go-colorable v0.0.9 // indirect
	github.com/mattn/go-isatty v0.0.7 // indirect
	github.com/mattn/go-runewidth v0.0.4 // indirect
	github.com/stretchr/testify v1.7.1 // indirect
	github.com/tklauser/go-sysconf v0.3.10 // indirect
	github.com/tklauser/numcpus v0.4.0 // indirect
	github.com/yusufpapurcu/wmi v1.2.2 // indirect
	golang.org/x/net v0.0.0-20190404232315-eb5bcb51f2a3 // indirect
	golang.org/x/sys v0.0.0-20220128215802-99c3d69c2c27 // indirect
)
